{
	"authors": [
		"James Gray"
	],
	"configurations": [
		{
			"excludedSourceFiles": [
				"source/test.d",
                        "source/logger/logger.d" 
			],
			"name": "debug",
			"targetType": "library"
		},
		{
                        "excludedSourceFiles":["source/logger/logger.d"],
			"mainSourceFile": "source/test.d",
			"name": "unittest",
			"targetType": "executable"
		},
		{
			"mainSourceFile": "source/test.d",
			"name": "fullunittest",
			"targetType": "executable",
                        "excludedSourceFiles":["source/logger/logger.d"],
			"versions": [
				"normal",
				"fulltest"
			]
		},
		{
			"mainSourceFile": "source/test.d",
			"name": "redisunittest",
			"targetType": "executable",
                        "excludedSourceFiles":["source/logger/logger.d"],
			"versions": [
				"redisTest"
			]
		}
	],
	"copyright": "Copyright © 2021, James Gray",
	"dependencies": {
		"automem": "~>0.6.7",
		"sumtype": "~>1.1.1",
		"tinyredis": "~>2.2.1"
	},
	"description": "A library for various basic containers and range functions not available via phobos",
	"license": "proprietary",
	"name": "graylib",
	"version": "0.0.1"
}
